getElementById into getcontext into clearRect(x,y,w,h)


/*------------------------------
Variables globales
*/

//canvas layers
var canvas = document.getElementById('canvas');
var context = canvas.getContext('2d');


gameHandler -> 

#### MODIFICATION ####
	-> draw -> ajout de la ligne:
        context.clearRect(0,0,canvas.width,canvas.height);

	-> core -> ajout des lignes:
        //draw
        this.draw();